==14289==ERROR: AddressSanitizer: heap-buffer-overflow on address 0x61900000647f at pc 0x000000620c24 bp 0x7ffcbd9edfb0 sp 0x7ffcbd9edfa8
READ of size 1 at 0x61900000647f thread T0
    #0 0x620c23 in mutt_read_rfc822_line /f/mutt-1.5.24/parse.c:57:9
    #1 0x625d69 in mutt_read_rfc822_header /f/mutt-1.5.24/parse.c:1350:13
    #2 0x5cd0f5 in main /f/mutt-1.5.24/main.c:930:22
    #3 0x7f6416f7df9f in __libc_start_main /var/tmp/portage/sys-libs/glibc-2.20-r2/work/glibc-2.20/csu/libc-start.c:289
    #4 0x443376 in _start (/mnt/ram/mutt/mutt+0x443376)

0x61900000647f is located 1 bytes to the left of 1024-byte region [0x619000006480,0x619000006880)
allocated by thread T0 here:
    #0 0x4ca342 in malloc (/mnt/ram/mutt/mutt+0x4ca342)
    #1 0x6c25a0 in safe_malloc /f/mutt-1.5.24/lib.c:151:21
    #2 0x5cd0f5 in main /f/mutt-1.5.24/main.c:930:22
    #3 0x7f6416f7df9f in __libc_start_main /var/tmp/portage/sys-libs/glibc-2.20-r2/work/glibc-2.20/csu/libc-start.c:289

SUMMARY: AddressSanitizer: heap-buffer-overflow /f/mutt-1.5.24/parse.c:57 mutt_read_rfc822_line
Shadow bytes around the buggy address:
  0x0c327fff8c30: 00 00 00 00 00 00 00 00 00 00 00 00 00 00 00 00
  0x0c327fff8c40: 00 00 00 00 00 00 00 00 00 00 00 00 00 00 00 00
  0x0c327fff8c50: 00 00 00 00 00 00 00 00 00 00 00 00 00 00 00 00
  0x0c327fff8c60: 00 00 00 00 00 00 00 00 00 00 00 00 00 00 00 00
  0x0c327fff8c70: fa fa fa fa fa fa fa fa fa fa fa fa fa fa fa fa
=>0x0c327fff8c80: fa fa fa fa fa fa fa fa fa fa fa fa fa fa fa[fa]
  0x0c327fff8c90: 00 00 00 00 00 00 00 00 00 00 00 00 00 00 00 00
  0x0c327fff8ca0: 00 00 00 00 00 00 00 00 00 00 00 00 00 00 00 00
  0x0c327fff8cb0: 00 00 00 00 00 00 00 00 00 00 00 00 00 00 00 00
  0x0c327fff8cc0: 00 00 00 00 00 00 00 00 00 00 00 00 00 00 00 00
  0x0c327fff8cd0: 00 00 00 00 00 00 00 00 00 00 00 00 00 00 00 00
Shadow byte legend (one shadow byte represents 8 application bytes):
  Addressable:           00
  Partially addressable: 01 02 03 04 05 06 07 
  Heap left redzone:       fa
  Heap right redzone:      fb
  Freed heap region:       fd
  Stack left redzone:      f1
  Stack mid redzone:       f2
  Stack right redzone:     f3
  Stack partial redzone:   f4
  Stack after return:      f5
  Stack use after scope:   f8
  Global redzone:          f9
  Global init order:       f6
  Poisoned by user:        f7
  Container overflow:      fc
  Array cookie:            ac
  Intra object redzone:    bb
  ASan internal:           fe
  Left alloca redzone:     ca
  Right alloca redzone:    cb
==14289==ABORTING
