Ticket:  3832
Status:  closed
Summary: Cannot connect to IMAP4 mail server

Reporter: mikeegg
Owner:    brendan

Opened:       2016-04-12 20:13:37 UTC
Last Updated: 2016-04-21 19:54:16 UTC

Priority:  major
Component: IMAP
Keywords:  IMAP, SSL, TLS

--------------------------------------------------------------------------------
Description:
computer:~ someone$ mutt -v
Mutt 1.6.0 (2016-04-01)
Copyright (C) 1996-2016 Michael R. Elkins and others.
Mutt comes with ABSOLUTELY NO WARRANTY; for details type `mutt -vv'.
Mutt is free software, and you are welcome to redistribute it
under certain conditions; type `mutt -vv' for details.

System: Darwin 15.4.0 (x86_64)
ncurses: ncurses 6.0.20150808 (compiled with 6.0)
libiconv: 1.14
libidn: 1.32 (compiled with 1.32)

Compiler:
Apple LLVM version 7.3.0 (clang-703.0.29)
Target: x86_64-apple-darwin15.4.0
Thread model: posix
InstalledDir: /Applications/Xcode.app/Contents/Developer/Toolchains/XcodeDefault.xctoolchain/usr/bin

Configure options: '--prefix=/opt/local' '--disable-warnings' '--mandir=/opt/local/share/man' '--with-docdir=/opt/local/share/doc/mutt' '--with-libiconv-prefix=/opt/local' '--with-curses=/opt/local' '--disable-silent-rules' '--with-idn=/opt/local' '--enable-pop' '--enable-imap' '--with-ssl=/opt/local' '--enable-debug' '--with-gdbm' '--without-bdb' '--without-qdbm' '--without-tokyocabinet' 'CC=/usr/bin/clang' 'CFLAGS=-pipe -Os -arch x86_64' 'LDFLAGS=-L/opt/local/lib -Wl,-headerpad_max_install_names -arch x86_64' 'CPPFLAGS=-I/opt/local/include'

Compilation CFLAGS: -pipe -Os -arch x86_64

Compile options:
-DOMAIN
+DEBUG
-HOMESPOOL  +USE_SETGID  +USE_DOTLOCK  +DL_STANDALONE  +USE_FCNTL  -USE_FLOCK   
+USE_POP  +USE_IMAP  -USE_SMTP  
+USE_SSL_OPENSSL  -USE_SSL_GNUTLS  -USE_SASL  -USE_GSS  +HAVE_GETADDRINFO  
+HAVE_REGCOMP  -USE_GNU_REGEX  
+HAVE_COLOR  +HAVE_START_COLOR  +HAVE_TYPEAHEAD  +HAVE_BKGDSET  
+HAVE_CURS_SET  +HAVE_META  +HAVE_RESIZETERM  
+CRYPT_BACKEND_CLASSIC_PGP  +CRYPT_BACKEND_CLASSIC_SMIME  -CRYPT_BACKEND_GPGME  
-EXACT_ADDRESS  -SUN_ATTACHMENT  
+ENABLE_NLS  -LOCALES_HACK  +HAVE_WC_FUNCS  +HAVE_LANGINFO_CODESET  +HAVE_LANGINFO_YESEXPR  
+HAVE_ICONV  -ICONV_NONTRANS  +HAVE_LIBIDN  +HAVE_GETSID  -USE_HCACHE  
ISPELL="/opt/local/bin/ispell"
SENDMAIL="/usr/sbin/sendmail"
MAILPATH="/var/mail"
PKGDATADIR="/opt/local/share/mutt"
SYSCONFDIR="/opt/local/etc"
EXECSHELL="/bin/sh"
-MIXMASTER
To contact the developers, please mail to <mutt-dev@mutt.org>.
To report a bug, please visit http://bugs.mutt.org/.

 --------------------------------------------

[2016-04-12 14:19:04] Mutt/1.6.0 (2016-04-01) debugging at level 5
[2016-04-12 14:19:04] getdnsdomainname(): local
[2016-04-12 14:19:04] Reading configuration file '/opt/local/etc/Muttrc'.
[2016-04-12 14:19:04] parse_attach_list: ldata = 0x1087a3a18, *ldata = 0x0
[2016-04-12 14:19:04] parse_attach_list: added */.* [9]
[2016-04-12 14:19:04] parse_attach_list: ldata = 0x1087a3a20, *ldata = 0x0
[2016-04-12 14:19:04] parse_attach_list: added text/x-vcard [7]
[2016-04-12 14:19:04] parse_attach_list: added application/pgp.* [2]
[2016-04-12 14:19:04] parse_attach_list: ldata = 0x1087a3a20, *ldata = 0x7fa7c05034e0
[2016-04-12 14:19:04] parse_attach_list: skipping text/x-vcard
[2016-04-12 14:19:04] parse_attach_list: skipping application/pgp.*
[2016-04-12 14:19:04] parse_attach_list: added application/x-pkcs7-.* [2]
[2016-04-12 14:19:04] parse_attach_list: ldata = 0x1087a3a28, *ldata = 0x0
[2016-04-12 14:19:04] parse_attach_list: added text/plain [7]
[2016-04-12 14:19:04] parse_attach_list: ldata = 0x1087a3a20, *ldata = 0x7fa7c05034e0
[2016-04-12 14:19:04] parse_attach_list: skipping text/x-vcard
[2016-04-12 14:19:04] parse_attach_list: skipping application/pgp.*
[2016-04-12 14:19:04] parse_attach_list: skipping application/x-pkcs7-.*
[2016-04-12 14:19:04] parse_attach_list: added message/external-body [4]
[2016-04-12 14:19:04] parse_attach_list: ldata = 0x1087a3a30, *ldata = 0x0
[2016-04-12 14:19:04] parse_attach_list: added message/external-body [4]
[2016-04-12 14:19:04] Reading configuration file '/Users/someone/.muttrc.mac'.
[2016-04-12 14:19:04] Using default IMAP port 143
[2016-04-12 14:19:04] Using default IMAPS port 993
[2016-04-12 14:19:04] Reading configuration file '/Users/someone/.mutt/aliases'.
[2016-04-12 14:19:04] Reading imaps://someplace.com/INBOX...
[2016-04-12 14:19:04] Looking up someplace.com...
[2016-04-12 14:19:04] Connecting to someplace.com...
[2016-04-12 14:19:04] ssl_check_preauth: hostname check passed
[2016-04-12 14:19:04] X509_STORE_load_locations failed
[2016-04-12 14:19:04] X509_verify_cert: unable to get local issuer certificate (20)
[2016-04-12 14:19:04]  [/C=US/ST=someplace]
[2016-04-12 14:19:04] X509_STORE_load_locations failed
[2016-04-12 14:19:04] ssl_check_preauth: signer check passed
[2016-04-12 14:19:04] trusted: /C=US/O=Symantec Corporation/OU=Symantec Trust Network/CN=Symantec Class 3 Secure Server CA - G4
[2016-04-12 14:19:04] ssl_check_preauth: hostname check passed
[2016-04-12 14:19:04] X509_STORE_load_locations failed
[2016-04-12 14:19:04] ssl_check_preauth: signer check passed
[2016-04-12 14:19:04] TLSv1.2 connection using TLSv1/SSLv3 (ECDHE-RSA-AES128-GCM-SHA256)
[2016-04-12 14:19:05] Connected to someplace.com:993 on fd=6
[2016-04-12 14:19:05] imap_cmd_step: grew buffer to 512 bytes
[2016-04-12 14:19:05] 6< * OK [CAPABILITY mr11p00im-iscream005 15E205 XAPPLEPUSHSERVICE IMAP4 IMAP4rev1 SASL-IR AUTH=ATOKEN AUTH=PLAIN] iSCREAM ready to rumble (15E205-0982aaf890fd:4599) mr11p00im-iscream005 [03:38:19:19:04:80]
[2016-04-12 14:19:05] Handling CAPABILITY
[2016-04-12 14:19:05] IMAP queue drained
[2016-04-12 14:19:05] imap_authenticate: Using any available method.
[2016-04-12 14:19:10] Logging in...
[2016-04-12 14:19:10] 6> a0000 LOGIN "someone@ someplace.com" "password"
[2016-04-12 14:19:11] 6< a0000 OK [CAPABILITY XAPPLEPUSHSERVICE IMAP4 IMAP4rev1 ACL RIGHTS=tekx QUOTA LITERAL+ NAMESPACE UIDPLUS CHILDREN BINARY UNSELECT SORT CATENATE URLAUTH LANGUAGE ESEARCH ESORT THREAD=ORDEREDSUBJECT THREAD=REFERENCES CONDSTORE ENABLE QRESYNC CONTEXT=SEARCH CONTEXT=SORT WITHIN SASL-IR SEARCHRES METADATA ID XSENDER X-SUN-SORT ANNOTATE-EXPERIMENT-1 X-UNAUTHENTICATE X-SUN-IMAP XUM1 IDLE] User someone logged in
[2016-04-12 14:19:11] Handling CAPABILITY
[2016-04-12 14:19:11] IMAP queue drained
[2016-04-12 14:19:11] Communication encrypted at 128 bits
[2016-04-12 14:19:11] 6> a0001 CAPABILITY
a0002 ENABLE UTF8=ACCEPT
a0003 LIST "" ""
[2016-04-12 14:19:11] 6< * CAPABILITY XAPPLEPUSHSERVICE IMAP4 IMAP4rev1 ACL RIGHTS=tekx QUOTA LITERAL+ NAMESPACE UIDPLUS CHILDREN BINARY UNSELECT SORT CATENATE URLAUTH LANGUAGE ESEARCH ESORT THREAD=ORDEREDSUBJECT THREAD=REFERENCES CONDSTORE ENABLE QRESYNC CONTEXT=SEARCH CONTEXT=SORT WITHIN SASL-IR SEARCHRES METADATA ID XSENDER X-SUN-SORT ANNOTATE-EXPERIMENT-1 X-UNAUTHENTICATE X-SUN-IMAP XUM1 IDLE
[2016-04-12 14:19:11] Handling CAPABILITY
[2016-04-12 14:19:11] 6< a0001 OK Completed
[2016-04-12 14:42:46] SSL error: I/O error
[2016-04-12 14:42:46] Connection to imap.mail.me.com closed
[2016-04-12 14:42:48] imap_cmd_step: Error reading server response.
[2016-04-12 14:42:48] mutt_socket_close: Attempt to close closed connection.
[2016-04-12 14:42:48] Looking up imap.mail.me.com...
[2016-04-12 14:42:49] Connecting to imap.mail.me.com...
[2016-04-12 14:42:49] ssl_check_preauth: hostname check passed
[2016-04-12 14:42:49] X509_STORE_load_locations failed
[2016-04-12 14:42:49] ssl_check_preauth: signer check passed
[2016-04-12 14:42:49] TLSv1.2 connection using TLSv1/SSLv3 (ECDHE-RSA-AES128-GCM-SHA256)
[2016-04-12 14:42:50] Connected to imap.mail.me.com:993 on fd=6
[2016-04-12 14:42:50] 6< * OK [CAPABILITY st11p00mm-iscream028 15E205 XAPPLEPUSHSERVICE IMAP4 IMAP4rev1 SASL-IR AUTH=ATOKEN AUTH=PLAIN] iSCREAM ready to rumble (15E205-0982aaf890fd:22469) st11p00mm-iscream028 [38:1044:19:42:49:93]
[2016-04-12 14:42:50] Handling CAPABILITY
[2016-04-12 14:42:50] IMAP queue drained
[2016-04-12 14:42:50] imap_authenticate: Using any available method.
[2016-04-12 14:42:50] Logging in...
[2016-04-12 14:42:50] 6> a0000 LOGIN "someone@someplace.com" "password"
[2016-04-12 14:42:50] 6< a0000 OK [CAPABILITY XAPPLEPUSHSERVICE IMAP4 IMAP4rev1 ACL RIGHTS=tekx QUOTA LITERAL+ NAMESPACE UIDPLUS CHILDREN BINARY UNSELECT SORT CATENATE URLAUTH LANGUAGE ESEARCH ESORT THREAD=ORDEREDSUBJECT THREAD=REFERENCES CONDSTORE ENABLE QRESYNC CONTEXT=SEARCH CONTEXT=SORT WITHIN SASL-IR SEARCHRES METADATA ID XSENDER X-SUN-SORT ANNOTATE-EXPERIMENT-1 X-UNAUTHENTICATE X-SUN-IMAP XUM1 IDLE] User someone logged in
[2016-04-12 14:42:50] Handling CAPABILITY
[2016-04-12 14:42:50] IMAP queue drained
[2016-04-12 14:42:50] Communication encrypted at 128 bits
[2016-04-12 14:42:50] 6> a0001 CAPABILITY
a0002 ENABLE UTF8=ACCEPT
a0003 LIST "" ""
[2016-04-12 14:42:50] 6< * CAPABILITY XAPPLEPUSHSERVICE IMAP4 IMAP4rev1 ACL RIGHTS=tekx QUOTA LITERAL+ NAMESPACE UIDPLUS CHILDREN BINARY UNSELECT SORT CATENATE URLAUTH LANGUAGE ESEARCH ESORT THREAD=ORDEREDSUBJECT THREAD=REFERENCES CONDSTORE ENABLE QRESYNC CONTEXT=SEARCH CONTEXT=SORT WITHIN SASL-IR SEARCHRES METADATA ID XSENDER X-SUN-SORT ANNOTATE-EXPERIMENT-1 X-UNAUTHENTICATE X-SUN-IMAP XUM1 IDLE
[2016-04-12 14:42:50] Handling CAPABILITY
[2016-04-12 14:42:50] 6< a0001 OK Completed
[2016-04-12 14:46:58] SSL error: I/O error
[2016-04-12 14:46:58] Connection to someplace.com closed
[2016-04-12 14:47:00] imap_cmd_step: Error reading server response.
[2016-04-12 14:47:00] mutt_socket_close: Attempt to close closed connection.
[2016-04-12 14:47:00] mutt_num_postponed: using old IMAP postponed count.
[2016-04-12 14:48:00] mutt_index_menu[682]: Got op -1
[2016-04-12 14:49:00] mutt_index_menu[682]: Got op -1
[2016-04-12 14:50:00] mutt_index_menu[682]: Got op -1
[2016-04-12 14:51:00] mutt_index_menu[682]: Got op -1
[2016-04-12 14:52:00] mutt_index_menu[682]: Got op -1
[2016-04-12 14:53:01] mutt_index_menu[682]: Got op -1
[2016-04-12 14:54:01] mutt_index_menu[682]: Got op -1
[2016-04-12 14:55:01] mutt_index_menu[682]: Got op -1
[2016-04-12 14:56:01] mutt_index_menu[682]: Got op -1
[2016-04-12 14:57:01] mutt_index_menu[682]: Got op -1
[2016-04-12 14:58:01] mutt_index_menu[682]: Got op -1
[2016-04-12 14:59:01] mutt_index_menu[682]: Got op -1
[2016-04-12 15:00:01] mutt_index_menu[682]: Got op -1
[2016-04-12 15:01:01] mutt_index_menu[682]: Got op -1
[2016-04-12 15:02:01] mutt_index_menu[682]: Got op -1
[2016-04-12 15:03:01] mutt_index_menu[682]: Got op -1
[2016-04-12 15:04:01] mutt_index_menu[682]: Got op -1

 --------------------------------------------

This worked in the previous version (1.5.24?).

--------------------------------------------------------------------------------
2016-04-12 20:20:52 UTC brendan
* Added comment:
It's probably the "ENABLE UTF8=ACCEPT" command causing the server to close the connection. I believe that should be gated on the server advertising the UTF8=ACCEPT capability, which this serverr is not doing.

--------------------------------------------------------------------------------
2016-04-12 20:36:09 UTC brendan
* Added comment:
RFC 5161 says:
   - If the argument is not an extension known to the server, the server
     MUST ignore the argument.

   - If the argument is an extension known to the server, and it is not
     specifically permitted to be enabled using ENABLE, the server MUST
     ignore the argument.  (Note that knowing about an extension doesn't
     necessarily imply supporting that extension.)

But I suspect that this server is not complying. If I'm reading RFC 6855 right, a server supporting the capability should advertise it in the capability list, so perhaps mutt could work around this case by checking for the capability before sending the ENABLE command.

--------------------------------------------------------------------------------
2016-04-12 21:05:22 UTC mikeegg
* Added comment:
Thanks. In ~/.muttrc "ENABLE UTF8=ACCEPT", "enable utl8=accept", "set utf8 = yes" and all failed. Is there something I can do on my end?

Mike

--------------------------------------------------------------------------------
2016-04-12 21:29:41 UTC kevin8t8
* Added comment:
Hi Mike,

Would you be able to test this patch and see if it helps?

-Kevin

--------------------------------------------------------------------------------
2016-04-12 21:30:04 UTC kevin8t8
* Added attachment ticket-3832.patch

--------------------------------------------------------------------------------
2016-04-12 21:37:27 UTC mikeegg
* Added comment:
Testing...

--------------------------------------------------------------------------------
2016-04-12 22:38:49 UTC mikeegg
* Added comment:
When I build mutt from the 1.6 source I use the configure command:

$ ./configure --prefix=/Users/mikee/tmp/mutt/inst --includedir=/opt/local --libdir=/opt/local --enable-imap --enable-debug --with-ssl --with-gnutls --without-qdbm

$ make
.
.
.
gcc -DPKGDATADIR=\"/Users/mikee/tmp/mutt/inst/share/mutt\" -DSYSCONFDIR=\"/Users/mikee/tmp/mutt/inst/etc\" -DBINDIR=\"/Users/mikee/tmp/mutt/inst/bin\" -DMUTTLOCALEDIR=\"/Users/mikee/tmp/mutt/inst/share/locale\" -DHAVE_CONFIG_H=1 -I.  -I. -I. -I./imap  -Iintl -I./intl  -Wall -pedantic -Wno-long-long -g -O2 -MT mutt_ssl.o -MD -MP -MF .deps/mutt_ssl.Tpo -c -o mutt_ssl.o mutt_ssl.c
mutt_ssl.c:23:10: fatal error: 'openssl/ssl.h' file not found


I do not see a "-I/opt/local/include" so that "openssl/ssl.h" is included. I'm on a Mac and use the ports system.

Mike



--------------------------------------------------------------------------------
2016-04-12 22:46:55 UTC kevin8t8
* Added comment:
Try
{{{
'--with-ssl=/opt/local'
}}}
Also, you probably don't want the '--with-gnutls' if you're using OpenSSL.

You may want to just try using the exact configure parameters it was built with (from your debugging output):
{{{
'--with-libiconv-prefix=/opt/local' '--with-curses=/opt/local' '--with-idn=/opt/local' '--enable-pop' '--enable-imap' '--with-ssl=/opt/local' '--enable-debug' '--with-gdbm' '--without-bdb' '--without-qdbm' '--without-tokyocabinet'
}}}

--------------------------------------------------------------------------------
2016-04-12 22:48:23 UTC kevin8t8
* Added comment:
Oh sorry, I didn't read carefully enough.  Perhaps you need to install an openssl-dev package?

--------------------------------------------------------------------------------
2016-04-12 23:01:09 UTC kevin8t8
* Added comment:
Ignore comment:8, you should try my suggestion from comment:7.  The '--includedir' and '--libdir' set installation directories, not defaults for -I and -L.  So please try adding the directory after the configuration option.

I'm a little baffled how configure didn't error out though...

--------------------------------------------------------------------------------
2016-04-13 01:22:31 UTC mikeegg
* Added comment:
I'm trying "--with-ssl=/opt/local".

--------------------------------------------------------------------------------
2016-04-13 02:01:29 UTC mikeegg
* Added comment:
The "--with-ssl=/opt/local" worked. Here's the log with the same result (not connecting to the server). You're right in that I don't need --with-ssl and --with-gnutls.

-----------------------------------------------------

[2016-04-12 20:27:56] Mutt/1.6.0 (2016-04-01) debugging at level 5
[2016-04-12 20:27:56] getdnsdomainname(): local
[2016-04-12 20:27:56] Reading configuration file '/Users/someone/tmp/mutt/inst/etc/Muttrc'.
[2016-04-12 20:27:56] parse_attach_list: ldata = 0x10287b6d0, *ldata = 0x0
[2016-04-12 20:27:56] parse_attach_list: added */.* [9]
[2016-04-12 20:27:56] parse_attach_list: ldata = 0x10287b6d8, *ldata = 0x0
[2016-04-12 20:27:56] parse_attach_list: added text/x-vcard [7]
[2016-04-12 20:27:56] parse_attach_list: added application/pgp.* [2]
[2016-04-12 20:27:56] parse_attach_list: ldata = 0x10287b6d8, *ldata = 0x7faf38d10fc0
[2016-04-12 20:27:56] parse_attach_list: skipping text/x-vcard
[2016-04-12 20:27:56] parse_attach_list: skipping application/pgp.*
[2016-04-12 20:27:56] parse_attach_list: added application/x-pkcs7-.* [2]
[2016-04-12 20:27:56] parse_attach_list: ldata = 0x10287b6e0, *ldata = 0x0
[2016-04-12 20:27:56] parse_attach_list: added text/plain [7]
[2016-04-12 20:27:56] parse_attach_list: ldata = 0x10287b6d8, *ldata = 0x7faf38d10fc0
[2016-04-12 20:27:56] parse_attach_list: skipping text/x-vcard
[2016-04-12 20:27:56] parse_attach_list: skipping application/pgp.*
[2016-04-12 20:27:56] parse_attach_list: skipping application/x-pkcs7-.*
[2016-04-12 20:27:56] parse_attach_list: added message/external-body [4]
[2016-04-12 20:27:56] parse_attach_list: ldata = 0x10287b6e8, *ldata = 0x0
[2016-04-12 20:27:56] parse_attach_list: added message/external-body [4]
[2016-04-12 20:27:56] Reading configuration file '/Users/someone/.muttrc.mac'.
[2016-04-12 20:27:56] Using default IMAP port 143
[2016-04-12 20:27:56] Using default IMAPS port 993
[2016-04-12 20:27:56] Reading configuration file '/Users/someone/.mutt/aliases'.
[2016-04-12 20:27:56] Reading imaps://someplace.com/INBOX...
[2016-04-12 20:27:56] Looking up someplace.com...
[2016-04-12 20:27:56] Connecting to someplace.com...
[2016-04-12 20:27:57] ssl_check_preauth: hostname check passed
[2016-04-12 20:27:57] X509_STORE_load_locations failed
[2016-04-12 20:27:57] X509_verify_cert: unable to get local issuer certificate (20)
[2016-04-12 20:27:57]  [/C=US/ST=someplace]
[2016-04-12 20:27:57] X509_STORE_load_locations failed
[2016-04-12 20:27:57] ssl_check_preauth: signer check passed
[2016-04-12 20:27:57] trusted: /C=US/O=Symantec Corporation/OU=Symantec Trust Network/CN=Symantec Class 3 Secure Server CA - G4
[2016-04-12 20:27:57] ssl_check_preauth: hostname check passed
[2016-04-12 20:27:57] X509_STORE_load_locations failed
[2016-04-12 20:27:57] ssl_check_preauth: signer check passed
[2016-04-12 20:27:57] TLSv1.2 connection using TLSv1/SSLv3 (ECDHE-RSA-AES128-GCM-SHA256)
[2016-04-12 20:27:58] Connected to someplace.com:993 on fd=6
[2016-04-12 20:27:58] imap_cmd_step: grew buffer to 512 bytes
[2016-04-12 20:27:58] 6< * OK [CAPABILITY st11p00mm-iscream005 15E205 XAPPLEPUSHSERVICE IMAP4 IMAP4rev1 SASL-IR AUTH=ATOKEN AUTH=PLAIN] iSCREAM ready to rumble (15E205-0982aaf890fd:26286) st11p00mm-iscream005 [42:100:01:27:57:1F]
[2016-04-12 20:27:58] Handling CAPABILITY
[2016-04-12 20:27:58] IMAP queue drained
[2016-04-12 20:27:58] imap_authenticate: Using any available method.
[2016-04-12 20:28:02] Logging in...
[2016-04-12 20:28:02] 6> a0000 LOGIN "someone@someplace.com" "password"
[2016-04-12 20:28:02] 6< a0000 OK [CAPABILITY XAPPLEPUSHSERVICE IMAP4 IMAP4rev1 ACL RIGHTS=tekx QUOTA LITERAL+ NAMESPACE UIDPLUS CHILDREN BINARY UNSELECT SORT CATENATE URLAUTH LANGUAGE ESEARCH ESORT THREAD=ORDEREDSUBJECT THREAD=REFERENCES CONDSTORE ENABLE QRESYNC CONTEXT=SEARCH CONTEXT=SORT WITHIN SASL-IR SEARCHRES METADATA ID XSENDER X-SUN-SORT ANNOTATE-EXPERIMENT-1 X-UNAUTHENTICATE X-SUN-IMAP XUM1 IDLE] User someone logged in
[2016-04-12 20:28:02] Handling CAPABILITY
[2016-04-12 20:28:02] IMAP queue drained
[2016-04-12 20:28:02] Communication encrypted at 128 bits
[2016-04-12 20:28:02] 6> a0001 CAPABILITY
a0002 LIST "" ""
[2016-04-12 20:28:02] 6< * CAPABILITY XAPPLEPUSHSERVICE IMAP4 IMAP4rev1 ACL RIGHTS=tekx QUOTA LITERAL+ NAMESPACE UIDPLUS CHILDREN BINARY UNSELECT SORT CATENATE URLAUTH LANGUAGE ESEARCH ESORT THREAD=ORDEREDSUBJECT THREAD=REFERENCES CONDSTORE ENABLE QRESYNC CONTEXT=SEARCH CONTEXT=SORT WITHIN SASL-IR SEARCHRES METADATA ID XSENDER X-SUN-SORT ANNOTATE-EXPERIMENT-1 X-UNAUTHENTICATE X-SUN-IMAP XUM1 IDLE
[2016-04-12 20:28:02] Handling CAPABILITY
[2016-04-12 20:28:02] 6< a0001 OK Completed

-----------------------------------------------------

--------------------------------------------------------------------------------
2016-04-13 06:39:00 UTC brendan
* Added comment:
Is the bit immediately following this still
{{{
[2016-04-12 14:46:58] SSL error: I/O error
[2016-04-12 14:46:58] Connection to someplace.com closed
[2016-04-12 14:47:00] imap_cmd_step: Error reading server response.
}}}
? I don't think much would have changed on mutt's side from 1.5.2? to 1.6 other than the UTF8 command. But if it's still getting hung up on here, you could try `set imap_pipeline_depth=0` in your muttrc. Mutt's been pipelining for ages but I don't see much else that could go wrong here.

--------------------------------------------------------------------------------
2016-04-13 14:27:44 UTC kevin8t8
* Added comment:
Also, it might help useful to have the same trace for mutt 1.5.24, just in case it shows something that gives a clue.

I don't remember changing much else in IMAP except for a few bug fixes, so I'm surprised about this too.

--------------------------------------------------------------------------------
2016-04-13 15:03:31 UTC mikeegg
* Added comment:
Back at my computer this morning. Just tried the "set imap_pipeline_depth=0" and I connected to Apple's servers. Yes, this server is at Apple. I removed the pipeline setting and now mutt is hanging again. I'll post the two logs and a diff in a few minutes. Since I'm using "ports" I don't know if I can reinstall 1.5.24 and since I'm on a Mac I don't have the standard (to me) strace(1) command.

--------------------------------------------------------------------------------
2016-04-13 15:04:46 UTC mikeegg
* Added comment:
Oh, on the "SSL error: I/O error" (timeout?), I waited what seemed a long time for this to happen again so the entry would be in the last log I posted, but it didn't happen.

--------------------------------------------------------------------------------
2016-04-13 15:18:01 UTC mikeegg
* Added comment:
I don't think a diff makes much sense. I'll not post a diff.
I hope I sanitized well. :)

Setting the pipeline to 1; connection worked:
---------------------------------------------------
[2016-04-13 09:59:27] Mutt/1.6.0 (2016-04-01) debugging at level 5
[2016-04-13 09:59:27] getdnsdomainname(): local
[2016-04-13 09:59:27] Reading configuration file '/Users/someone/tmp/mutt/inst/etc/Muttrc'.
[2016-04-13 09:59:27] parse_attach_list: ldata = 0x1058066d0, *ldata = 0x0
[2016-04-13 09:59:27] parse_attach_list: added */.* [9]
[2016-04-13 09:59:27] parse_attach_list: ldata = 0x1058066d8, *ldata = 0x0
[2016-04-13 09:59:27] parse_attach_list: added text/x-vcard [7]
[2016-04-13 09:59:27] parse_attach_list: added application/pgp.* [2]
[2016-04-13 09:59:27] parse_attach_list: ldata = 0x1058066d8, *ldata = 0x7fd13350bc20
[2016-04-13 09:59:27] parse_attach_list: skipping text/x-vcard
[2016-04-13 09:59:27] parse_attach_list: skipping application/pgp.*
[2016-04-13 09:59:27] parse_attach_list: added application/x-pkcs7-.* [2]
[2016-04-13 09:59:27] parse_attach_list: ldata = 0x1058066e0, *ldata = 0x0
[2016-04-13 09:59:27] parse_attach_list: added text/plain [7]
[2016-04-13 09:59:27] parse_attach_list: ldata = 0x1058066d8, *ldata = 0x7fd13350bc20
[2016-04-13 09:59:27] parse_attach_list: skipping text/x-vcard
[2016-04-13 09:59:27] parse_attach_list: skipping application/pgp.*
[2016-04-13 09:59:27] parse_attach_list: skipping application/x-pkcs7-.*
[2016-04-13 09:59:27] parse_attach_list: added message/external-body [4]
[2016-04-13 09:59:27] parse_attach_list: ldata = 0x1058066e8, *ldata = 0x0
[2016-04-13 09:59:27] parse_attach_list: added message/external-body [4]
[2016-04-13 09:59:27] Reading configuration file '/Users/someone/.muttrc.mac'.
[2016-04-13 09:59:27] Using default IMAP port 143
[2016-04-13 09:59:27] Using default IMAPS port 993
[2016-04-13 09:59:27] Reading configuration file '/Users/someone/.mutt/aliases'.
[2016-04-13 09:59:27] Reading imaps://someplace.com/INBOX...
[2016-04-13 09:59:27] Looking up someplace.com...
[2016-04-13 09:59:27] Connecting to someplace.com...
[2016-04-13 09:59:28] ssl_check_preauth: hostname check passed
[2016-04-13 09:59:28] X509_STORE_load_locations failed
[2016-04-13 09:59:28] X509_verify_cert: unable to get local issuer certificate (20)
[2016-04-13 09:59:28]  [/C=US/ST=someplace]
[2016-04-13 09:59:28] X509_STORE_load_locations failed
[2016-04-13 09:59:28] ssl_check_preauth: signer check passed
[2016-04-13 09:59:28] trusted: /C=US/O=Symantec Corporation/OU=Symantec Trust Network/CN=Symantec Class 3 Secure Server CA - G4
[2016-04-13 09:59:28] ssl_check_preauth: hostname check passed
[2016-04-13 09:59:28] X509_STORE_load_locations failed
[2016-04-13 09:59:28] ssl_check_preauth: signer check passed
[2016-04-13 09:59:28] TLSv1.2 connection using TLSv1/SSLv3 (ECDHE-RSA-AES128-GCM-SHA256)
[2016-04-13 09:59:29] Connected to someplace.com:993 on fd=6
[2016-04-13 09:59:29] imap_cmd_step: grew buffer to 512 bytes
[2016-04-13 09:59:29] 6< * OK [CAPABILITY mr11p00im-iscream025 15E205 XAPPLEPUSHSERVICE IMAP4 IMAP4rev1 SASL-IR AUTH=ATOKEN AUTH=PLAIN] iSCREAM ready to rumble (15E205-0982aaf890fd:21694) mr11p00im-iscream025 [06:716:14:59:28:69]
[2016-04-13 09:59:29] Handling CAPABILITY
[2016-04-13 09:59:29] IMAP queue drained
[2016-04-13 09:59:29] imap_authenticate: Using any available method.
[2016-04-13 09:59:35] Logging in...
[2016-04-13 09:59:35] 6> a0000 LOGIN "someone@someplace.com" "password"
[2016-04-13 09:59:36] 6< a0000 OK [CAPABILITY XAPPLEPUSHSERVICE IMAP4 IMAP4rev1 ACL RIGHTS=tekx QUOTA LITERAL+ NAMESPACE UIDPLUS CHILDREN BINARY UNSELECT SORT CATENATE URLAUTH LANGUAGE ESEARCH ESORT THREAD=ORDEREDSUBJECT THREAD=REFERENCES CONDSTORE ENABLE QRESYNC CONTEXT=SEARCH CONTEXT=SORT WITHIN SASL-IR SEARCHRES METADATA ID XSENDER X-SUN-SORT ANNOTATE-EXPERIMENT-1 X-UNAUTHENTICATE X-SUN-IMAP XUM1 IDLE] User someone logged in
[2016-04-13 09:59:36] Handling CAPABILITY
[2016-04-13 09:59:36] IMAP queue drained
[2016-04-13 09:59:36] Communication encrypted at 128 bits
[2016-04-13 09:59:36] Draining IMAP command pipeline
[2016-04-13 09:59:36] 6> a0001 CAPABILITY
[2016-04-13 09:59:36] 6< * CAPABILITY XAPPLEPUSHSERVICE IMAP4 IMAP4rev1 ACL RIGHTS=tekx QUOTA LITERAL+ NAMESPACE UIDPLUS CHILDREN BINARY UNSELECT SORT CATENATE URLAUTH LANGUAGE ESEARCH ESORT THREAD=ORDEREDSUBJECT THREAD=REFERENCES CONDSTORE ENABLE QRESYNC CONTEXT=SEARCH CONTEXT=SORT WITHIN SASL-IR SEARCHRES METADATA ID XSENDER X-SUN-SORT ANNOTATE-EXPERIMENT-1 X-UNAUTHENTICATE X-SUN-IMAP XUM1 IDLE
[2016-04-13 09:59:36] Handling CAPABILITY
[2016-04-13 09:59:36] 6< a0001 OK Completed
[2016-04-13 09:59:36] IMAP queue drained
[2016-04-13 09:59:36] 6> a0002 LIST "" ""
[2016-04-13 09:59:37] 6< * LIST (\Noselect) "/" ""
[2016-04-13 09:59:37] Root delimiter: /
[2016-04-13 09:59:37] 6< a0002 OK Completed
[2016-04-13 09:59:37] IMAP queue drained
[2016-04-13 09:59:37] Selecting INBOX...
[2016-04-13 09:59:37] Draining IMAP command pipeline
[2016-04-13 09:59:37] 6> a0003 MYRIGHTS "INBOX"
[2016-04-13 09:59:37] 6< * MYRIGHTS INBOX lrstwiepkxacd
[2016-04-13 09:59:37] Handling MYRIGHTS
[2016-04-13 09:59:37] 6< a0003 OK Completed
[2016-04-13 09:59:37] IMAP queue drained
[2016-04-13 09:59:37] Draining IMAP command pipeline
[2016-04-13 09:59:37] 6> a0004 STATUS "postponed" (MESSAGES)
[2016-04-13 09:59:37] 6< a0004 NO [NONEXISTENT] Mailbox does not exist
[2016-04-13 09:59:37] IMAP queue drained
[2016-04-13 09:59:37] 6> a0005 SELECT "INBOX"
[2016-04-13 09:59:38] 6< * FLAGS (\Answered \Flagged \Draft \Deleted \Seen $Forwarded $NotJunk)
[2016-04-13 09:59:38] Getting mailbox FLAGS
[2016-04-13 09:59:38] 6< * OK [PERMANENTFLAGS (\Answered \Flagged \Draft \Deleted \Seen $Forwarded $NotJunk \*)]  
[2016-04-13 09:59:38] Getting mailbox PERMANENTFLAGS
[2016-04-13 09:59:38] 6< * 28 EXISTS
[2016-04-13 09:59:38] Handling EXISTS
[2016-04-13 09:59:38] cmd_handle_untagged: New mail in INBOX - 28 messages total.
[2016-04-13 09:59:38] 6< * 0 RECENT
[2016-04-13 09:59:38] 6< * OK [UNSEEN 22]  
[2016-04-13 09:59:38] 6< * OK [UIDVALIDITY 1234515146]  
[2016-04-13 09:59:38] Getting mailbox UIDVALIDITY
[2016-04-13 09:59:38] 6< * OK [UIDNEXT 1276442]  
[2016-04-13 09:59:38] Getting mailbox UIDNEXT
[2016-04-13 09:59:38] 6< a0005 OK [READ-WRITE] Completed
[2016-04-13 09:59:38] IMAP queue drained
[2016-04-13 09:59:38] Mailbox flags: [2016-04-13 09:59:38] [\Answered] [2016-04-13 09:59:38] [\Flagged] [2016-04-13 09:59:38] [\Draft] [2016-04-13 09:59:38] [\Deleted] [2016-04-13 09:59:38] [\Seen] [2016-04-13 09:59:38] [$Forwarded] [2016-04-13 09:59:38] [$NotJunk] [2016-04-13 09:59:38] [\*] [2016-04-13 09:59:38] 
[2016-04-13 09:59:38] message.c:105: mutt_mktemp returns "/var/folders/96/vhf4cth93kx25b7mhg3v_g5m0000gn/T//mutt-computer-501-821-758990811166553898".
[2016-04-13 09:59:38] updating progress: 0
[2016-04-13 09:59:38] Fetching message headers... 0/28 (0%)
[2016-04-13 09:59:38] 6> a0006 FETCH 1:28 (UID FLAGS INTERNALDATE RFC822.SIZE BODY.PEEK[HEADER.FIELDS (DATE FROM SUBJECT TO CC MESSAGE-ID REFERENCES CONTENT-TYPE CONTENT-DESCRIPTION IN-REPLY-TO REPLY-TO LINES LIST-POST X-LABEL)])
[2016-04-13 09:59:38] 6< * 1 FETCH (FLAGS (\Seen) UID 1276322 INTERNALDATE "12-Apr-2016 22:05:01 +0000" RFC822.SIZE 47524 BODY[HEADER.FIELDS (DATE FROM SUBJECT TO CC MESSAGE-ID REFERENCES CONTENT-TYPE CONTENT-DESCRIPTION IN-REPLY-TO REPLY-TO LINES LIST-POST X-LABEL)] {245}
[2016-04-13 09:59:38] Handling FETCH
[2016-04-13 09:59:38] FETCH response ignored for this message
[2016-04-13 09:59:38] imap_read_literal: reading 245 bytes
[2016-04-13 09:59:38] 6< )
[2016-04-13 09:59:38] parse_parameters: `charset=UTF-8'
[2016-04-13 09:59:38] parse_parameter: `charset' = `UTF-8'
[2016-04-13 09:59:38] 6< * 2 FETCH (FLAGS (\Seen) UID 1276343 INTERNALDATE "13-Apr-2016 00:13:09 +0000" RFC822.SIZE 11820 BODY[HEADER.FIELDS (DATE FROM SUBJECT TO CC MESSAGE-ID REFERENCES CONTENT-TYPE CONTENT-DESCRIPTION IN-REPLY-TO REPLY-TO LINES LIST-POST X-LABEL)] {451}
[2016-04-13 09:59:38] Handling FETCH
[2016-04-13 09:59:38] FETCH response ignored for this message
[2016-04-13 09:59:38] imap_read_literal: reading 451 bytes
[2016-04-13 09:59:38] 6< )
[2016-04-13 09:59:38] parse_parameters: `boundary="----=_Part_1629576_29328843.1460506215613"'
[2016-04-13 09:59:38] parse_parameter: `boundary' = `----=_Part_1629576_29328843.1460506215613'
[2016-04-13 09:59:38] 6< * 3 FETCH (FLAGS (\Seen) UID 1276385 INTERNALDATE "13-Apr-2016 05:07:45 +0000" RFC822.SIZE 50844 BODY[HEADER.FIELDS (DATE FROM SUBJECT TO CC MESSAGE-ID REFERENCES CONTENT-TYPE CONTENT-DESCRIPTION IN-REPLY-TO REPLY-TO LINES LIST-POST X-LABEL)] {379}
[2016-04-13 09:59:38] Handling FETCH
[2016-04-13 09:59:38] FETCH response ignored for this message
[2016-04-13 09:59:38] imap_read_literal: reading 379 bytes
[2016-04-13 09:59:38] 6< )
[2016-04-13 09:59:38] parse_parameters: `boundary="_----------=_MCPart_1016585192"'
[2016-04-13 09:59:38] parse_parameter: `boundary' = `_----------=_MCPart_1016585192'
[2016-04-13 09:59:38] 6< * 4 FETCH (FLAGS (\Deleted \Seen) UID 1276387 INTERNALDATE "13-Apr-2016 05:20:13 +0000" RFC822.SIZE 10293 BODY[HEADER.FIELDS (DATE FROM SUBJECT TO CC MESSAGE-ID REFERENCES CONTENT-TYPE CONTENT-DESCRIPTION IN-REPLY-TO REPLY-TO LINES LIST-POST X-LABEL)] {377}
[2016-04-13 09:59:38] Handling FETCH
[2016-04-13 09:59:38] FETCH response ignored for this message
[2016-04-13 09:59:38] imap_read_literal: reading 377 bytes
[2016-04-13 09:59:38] 6< )
[2016-04-13 09:59:38] parse_parameters: `boundary=b1_a669f80d1df87084c8796be9c35c1372'
[2016-04-13 09:59:38] parse_parameter: `boundary' = `b1_a669f80d1df87084c8796be9c35c1372'
[2016-04-13 09:59:38] 6< * 5 FETCH (FLAGS (\Seen) UID 1276388 INTERNALDATE "13-Apr-2016 05:40:29 +0000" RFC822.SIZE 4349 BODY[HEADER.FIELDS (DATE FROM SUBJECT TO CC MESSAGE-ID REFERENCES CONTENT-TYPE CONTENT-DESCRIPTION IN-REPLY-TO REPLY-TO LINES LIST-POST X-LABEL)] {341}
[2016-04-13 09:59:38] Handling FETCH
[2016-04-13 09:59:38] FETCH response ignored for this message
[2016-04-13 09:59:38] imap_read_literal: reading 341 bytes
[2016-04-13 09:59:38] 6< )
[2016-04-13 09:59:38] parse_parameters: `boundary=--_com.android.email_1244946723067668_alt'
[2016-04-13 09:59:38] parse_parameter: `boundary' = `--_com.android.email_1244946723067668_alt'
[2016-04-13 09:59:38] 6< * 6 FETCH (FLAGS (\Seen) UID 1276390 INTERNALDATE "13-Apr-2016 05:59:05 +0000" RFC822.SIZE 3787 BODY[HEADER.FIELDS (DATE FROM SUBJECT TO CC MESSAGE-ID REFERENCES CONTENT-TYPE CONTENT-DESCRIPTION IN-REPLY-TO REPLY-TO LINES LIST-POST X-LABEL)] {427}
[2016-04-13 09:59:38] Handling FETCH
[2016-04-13 09:59:38] FETCH response ignored for this message
[2016-04-13 09:59:38] imap_read_literal: reading 427 bytes
[2016-04-13 09:59:38] 6< )
[2016-04-13 09:59:38] parse_parameters: `format=flowed'
[2016-04-13 09:59:38] parse_parameter: `format' = `flowed'
[2016-04-13 09:59:38] 6< * 7 FETCH (FLAGS (\Seen) UID 1276392 INTERNALDATE "13-Apr-2016 06:33:00 +0000" RFC822.SIZE 4806 BODY[HEADER.FIELDS (DATE FROM SUBJECT TO CC MESSAGE-ID REFERENCES CONTENT-TYPE CONTENT-DESCRIPTION IN-REPLY-TO REPLY-TO LINES LIST-POST X-LABEL)] {593}
[2016-04-13 09:59:38] Handling FETCH
[2016-04-13 09:59:38] FETCH response ignored for this message
[2016-04-13 09:59:38] imap_read_literal: reading 593 bytes
[2016-04-13 09:59:38] 6< )
[2016-04-13 09:59:38] parse_parameters: `charset=us-ascii'
[2016-04-13 09:59:38] parse_parameter: `charset' = `us-ascii'
[2016-04-13 09:59:38] 6< * 8 FETCH (FLAGS (\Seen) UID 1276393 INTERNALDATE "13-Apr-2016 06:39:04 +0000" RFC822.SIZE 5002 BODY[HEADER.FIELDS (DATE FROM SUBJECT TO CC MESSAGE-ID REFERENCES CONTENT-TYPE CONTENT-DESCRIPTION IN-REPLY-TO REPLY-TO LINES LIST-POST X-LABEL)] {464}
[2016-04-13 09:59:38] Handling FETCH
[2016-04-13 09:59:38] FETCH response ignored for this message
[2016-04-13 09:59:38] imap_read_literal: reading 464 bytes
[2016-04-13 09:59:38] 6< )
[2016-04-13 09:59:38] parse_parameters: `charset=utf-8'
[2016-04-13 09:59:38] parse_parameter: `charset' = `utf-8'
[2016-04-13 09:59:38] 6< * 9 FETCH (FLAGS (\Deleted \Seen) UID 1276422 INTERNALDATE "13-Apr-2016 13:50:25 +0000" RFC822.SIZE 16091 BODY[HEADER.FIELDS (DATE FROM SUBJECT TO CC MESSAGE-ID REFERENCES CONTENT-TYPE CONTENT-DESCRIPTION IN-REPLY-TO REPLY-TO LINES LIST-POST X-LABEL)] {395}
[2016-04-13 09:59:38] Handling FETCH
[2016-04-13 09:59:38] FETCH response ignored for this message
[2016-04-13 09:59:38] imap_read_literal: reading 395 bytes
[2016-04-13 09:59:38] 6< )
[2016-04-13 09:59:38] parse_parameters: `boundary=9nlWnTS9ocNmxdhsK3FKVLWiM6a5jwOaA8HvrLV'
[2016-04-13 09:59:38] parse_parameter: `boundary' = `9nlWnTS9ocNmxdhsK3FKVLWiM6a5jwOaA8HvrLV'
[2016-04-13 09:59:38] updating progress: 10
[2016-04-13 09:59:38] Fetching message headers... 10/28 (35%)
[2016-04-13 09:59:38] 6< * 10 FETCH (FLAGS (\Deleted \Seen) UID 1276423 INTERNALDATE "13-Apr-2016 13:51:19 +0000" RFC822.SIZE 110586 BODY[HEADER.FIELDS (DATE FROM SUBJECT TO CC MESSAGE-ID REFERENCES CONTENT-TYPE CONTENT-DESCRIPTION IN-REPLY-TO REPLY-TO LINES LIST-POST X-LABEL)] {367}
[2016-04-13 09:59:38] Handling FETCH
[2016-04-13 09:59:38] FETCH response ignored for this message
[2016-04-13 09:59:38] imap_read_literal: reading 367 bytes
[2016-04-13 09:59:38] 6< )
[2016-04-13 09:59:38] parse_parameters: `boundary="----=_Part_39068773_773625833.1460555373537"'
[2016-04-13 09:59:38] parse_parameter: `boundary' = `----=_Part_39068773_773625833.1460555373537'
[2016-04-13 09:59:38] 6< * 11 FETCH (FLAGS (\Deleted \Seen) UID 1276424 INTERNALDATE "13-Apr-2016 13:51:41 +0000" RFC822.SIZE 10485 BODY[HEADER.FIELDS (DATE FROM SUBJECT TO CC MESSAGE-ID REFERENCES CONTENT-TYPE CONTENT-DESCRIPTION IN-REPLY-TO REPLY-TO LINES LIST-POST X-LABEL)] {395}
[2016-04-13 09:59:38] Handling FETCH
[2016-04-13 09:59:38] FETCH response ignored for this message
[2016-04-13 09:59:38] imap_read_literal: reading 395 bytes
[2016-04-13 09:59:38] 6< )
[2016-04-13 09:59:38] parse_parameters: `boundary=b1_8ba9627ec0ca92313eea48c4260cd180'
[2016-04-13 09:59:38] parse_parameter: `boundary' = `b1_8ba9627ec0ca92313eea48c4260cd180'
[2016-04-13 09:59:38] 6< * 12 FETCH (FLAGS (\Deleted \Seen) UID 1276425 INTERNALDATE "13-Apr-2016 14:02:21 +0000" RFC822.SIZE 16490 BODY[HEADER.FIELDS (DATE FROM SUBJECT TO CC MESSAGE-ID REFERENCES CONTENT-TYPE CONTENT-DESCRIPTION IN-REPLY-TO REPLY-TO LINES LIST-POST X-LABEL)] {484}
[2016-04-13 09:59:38] Handling FETCH
[2016-04-13 09:59:38] FETCH response ignored for this message
[2016-04-13 09:59:38] imap_read_literal: reading 484 bytes
[2016-04-13 09:59:38] 6< )
[2016-04-13 09:59:38] parse_parameters: `boundary=9nlWnTS9ocNmxdhsK3FKVLWiM6a5jwOaA8HvrLV'
[2016-04-13 09:59:38] parse_parameter: `boundary' = `9nlWnTS9ocNmxdhsK3FKVLWiM6a5jwOaA8HvrLV'
[2016-04-13 09:59:38] 6< * 13 FETCH (FLAGS (\Seen) UID 1276426 INTERNALDATE "13-Apr-2016 14:10:12 +0000" RFC822.SIZE 32709 BODY[HEADER.FIELDS (DATE FROM SUBJECT TO CC MESSAGE-ID REFERENCES CONTENT-TYPE CONTENT-DESCRIPTION IN-REPLY-TO REPLY-TO LINES LIST-POST X-LABEL)] {343}
[2016-04-13 09:59:38] Handling FETCH
[2016-04-13 09:59:38] FETCH response ignored for this message
[2016-04-13 09:59:38] imap_read_literal: reading 343 bytes
[2016-04-13 09:59:38] 6< )
[2016-04-13 09:59:38] parse_parameters: `charset=UTF-8'
[2016-04-13 09:59:38] parse_parameter: `charset' = `UTF-8'
[2016-04-13 09:59:38] 6< * 14 FETCH (FLAGS (\Deleted \Seen) UID 1276427 INTERNALDATE "13-Apr-2016 14:23:19 +0000" RFC822.SIZE 109384 BODY[HEADER.FIELDS (DATE FROM SUBJECT TO CC MESSAGE-ID REFERENCES CONTENT-TYPE CONTENT-DESCRIPTION IN-REPLY-TO REPLY-TO LINES LIST-POST X-LABEL)] {365}
[2016-04-13 09:59:38] Handling FETCH
[2016-04-13 09:59:38] FETCH response ignored for this message
[2016-04-13 09:59:38] imap_read_literal: reading 365 bytes
[2016-04-13 09:59:38] 6< )
[2016-04-13 09:59:38] parse_parameters: `boundary=a5e66213b4b74cb8afe4ef592839f71664224ca0f13c0fa997697684e4c8'
[2016-04-13 09:59:38] parse_parameter: `boundary' = `a5e66213b4b74cb8afe4ef592839f71664224ca0f13c0fa997697684e4c8'
[2016-04-13 09:59:38] 6< * 15 FETCH (FLAGS (\Seen) UID 1276428 INTERNALDATE "13-Apr-2016 14:27:48 +0000" RFC822.SIZE 4709 BODY[HEADER.FIELDS (DATE FROM SUBJECT TO CC MESSAGE-ID REFERENCES CONTENT-TYPE CONTENT-DESCRIPTION IN-REPLY-TO REPLY-TO LINES LIST-POST X-LABEL)] {464}
[2016-04-13 09:59:38] Handling FETCH
[2016-04-13 09:59:38] FETCH response ignored for this message
[2016-04-13 09:59:38] imap_read_literal: reading 464 bytes
[2016-04-13 09:59:38] 6< )
[2016-04-13 09:59:38] parse_parameters: `charset=utf-8'
[2016-04-13 09:59:38] parse_parameter: `charset' = `utf-8'
[2016-04-13 09:59:38] 6< * 16 FETCH (FLAGS (\Deleted \Seen) UID 1276429 INTERNALDATE "13-Apr-2016 14:31:03 +0000" RFC822.SIZE 33983 BODY[HEADER.FIELDS (DATE FROM SUBJECT TO CC MESSAGE-ID REFERENCES CONTENT-TYPE CONTENT-DESCRIPTION IN-REPLY-TO REPLY-TO LINES LIST-POST X-LABEL)] {506}
[2016-04-13 09:59:38] Handling FETCH
[2016-04-13 09:59:38] FETCH response ignored for this message
[2016-04-13 09:59:38] imap_read_literal: reading 506 bytes
[2016-04-13 09:59:38] 6< )
[2016-04-13 09:59:38] parse_parameters: `boundary="_----------=_MCPart_1357614994"'
[2016-04-13 09:59:38] parse_parameter: `boundary' = `_----------=_MCPart_1357614994'
[2016-04-13 09:59:38] 6< * 17 FETCH (FLAGS (\Answered \Deleted \Seen) UID 1276430 INTERNALDATE "13-Apr-2016 14:33:41 +0000" RFC822.SIZE 5534 BODY[HEADER.FIELDS (DATE FROM SUBJECT TO CC MESSAGE-ID REFERENCES CONTENT-TYPE CONTENT-DESCRIPTION IN-REPLY-TO REPLY-TO LINES LIST-POST X-LABEL)] {437}
[2016-04-13 09:59:38] Handling FETCH
[2016-04-13 09:59:38] FETCH response ignored for this message
[2016-04-13 09:59:38] imap_read_literal: reading 437 bytes
[2016-04-13 09:59:38] 6< )
[2016-04-13 09:59:38] parse_parameters: `boundary="----=_Part_1906831_1575337308.1460558017240"'
[2016-04-13 09:59:38] parse_parameter: `boundary' = `----=_Part_1906831_1575337308.1460558017240'
[2016-04-13 09:59:38] 6< * 18 FETCH (FLAGS (\Deleted \Seen) UID 1276431 INTERNALDATE "13-Apr-2016 14:40:25 +0000" RFC822.SIZE 4142 BODY[HEADER.FIELDS (DATE FROM SUBJECT TO CC MESSAGE-ID REFERENCES CONTENT-TYPE CONTENT-DESCRIPTION IN-REPLY-TO REPLY-TO LINES LIST-POST X-LABEL)] {537}
[2016-04-13 09:59:38] Handling FETCH
[2016-04-13 09:59:38] FETCH response ignored for this message
[2016-04-13 09:59:38] imap_read_literal: reading 537 bytes
[2016-04-13 09:59:38] 6< )
[2016-04-13 09:59:38] parse_parameters: `boundary="Apple-Mail=_D7FE68E9-A0CA-458F-BA21-E9E5CED53803"'
[2016-04-13 09:59:38] parse_parameter: `boundary' = `Apple-Mail=_D7FE68E9-A0CA-458F-BA21-E9E5CED53803'
[2016-04-13 09:59:38] 6< * 19 FETCH (FLAGS (\Deleted \Seen) UID 1276432 INTERNALDATE "13-Apr-2016 14:40:57 +0000" RFC822.SIZE 40992 BODY[HEADER.FIELDS (DATE FROM SUBJECT TO CC MESSAGE-ID REFERENCES CONTENT-TYPE CONTENT-DESCRIPTION IN-REPLY-TO REPLY-TO LINES LIST-POST X-LABEL)] {420}
[2016-04-13 09:59:38] Handling FETCH
[2016-04-13 09:59:38] FETCH response ignored for this message
[2016-04-13 09:59:38] imap_read_literal: reading 420 bytes
[2016-04-13 09:59:38] 6< )
[2016-04-13 09:59:38] parse_parameters: `boundary=care2-mulitpart-boundary-1234567890.1122334455'
[2016-04-13 09:59:38] parse_parameter: `boundary' = `care2-mulitpart-boundary-1234567890.1122334455'
[2016-04-13 09:59:38] updating progress: 20
[2016-04-13 09:59:38] Fetching message headers... 20/28 (71%)
[2016-04-13 09:59:38] 6< * 20 FETCH (FLAGS (\Deleted \Seen) UID 1276433 INTERNALDATE "13-Apr-2016 14:41:59 +0000" RFC822.SIZE 14166 BODY[HEADER.FIELDS (DATE FROM SUBJECT TO CC MESSAGE-ID REFERENCES CONTENT-TYPE CONTENT-DESCRIPTION IN-REPLY-TO REPLY-TO LINES LIST-POST X-LABEL)] {389}
[2016-04-13 09:59:38] Handling FETCH
[2016-04-13 09:59:38] FETCH response ignored for this message
[2016-04-13 09:59:38] imap_read_literal: reading 389 bytes
[2016-04-13 09:59:38] 6< )
[2016-04-13 09:59:38] parse_parameters: `boundary=b1_ffa2945cc7c5583ce86891e88687b939'
[2016-04-13 09:59:38] parse_parameter: `boundary' = `b1_ffa2945cc7c5583ce86891e88687b939'
[2016-04-13 09:59:38] 6< * 21 FETCH (FLAGS (\Seen) UID 1276434 INTERNALDATE "13-Apr-2016 14:42:37 +0000" RFC822.SIZE 4345 BODY[HEADER.FIELDS (DATE FROM SUBJECT TO CC MESSAGE-ID REFERENCES CONTENT-TYPE CONTENT-DESCRIPTION IN-REPLY-TO REPLY-TO LINES LIST-POST X-LABEL)] {344}
[2016-04-13 09:59:38] Handling FETCH
[2016-04-13 09:59:38] FETCH response ignored for this message
[2016-04-13 09:59:38] imap_read_literal: reading 344 bytes
[2016-04-13 09:59:38] 6< )
[2016-04-13 09:59:38] parse_parameters: `boundary=--_com.android.email_1276481463144233_alt'
[2016-04-13 09:59:38] parse_parameter: `boundary' = `--_com.android.email_1276481463144233_alt'
[2016-04-13 09:59:38] 6< * 22 FETCH (FLAGS () UID 1276435 INTERNALDATE "13-Apr-2016 14:42:41 +0000" RFC822.SIZE 4345 BODY[HEADER.FIELDS (DATE FROM SUBJECT TO CC MESSAGE-ID REFERENCES CONTENT-TYPE CONTENT-DESCRIPTION IN-REPLY-TO REPLY-TO LINES LIST-POST X-LABEL)] {344}
[2016-04-13 09:59:38] Handling FETCH
[2016-04-13 09:59:38] FETCH response ignored for this message
[2016-04-13 09:59:38] imap_read_literal: reading 344 bytes
[2016-04-13 09:59:38] 6< )
[2016-04-13 09:59:38] parse_parameters: `boundary=--_com.android.email_1276485530624777_alt'
[2016-04-13 09:59:38] parse_parameter: `boundary' = `--_com.android.email_1276485530624777_alt'
[2016-04-13 09:59:38] 6< * 23 FETCH (FLAGS () UID 1276436 INTERNALDATE "13-Apr-2016 14:43:51 +0000" RFC822.SIZE 4506 BODY[HEADER.FIELDS (DATE FROM SUBJECT TO CC MESSAGE-ID REFERENCES CONTENT-TYPE CONTENT-DESCRIPTION IN-REPLY-TO REPLY-TO LINES LIST-POST X-LABEL)] {423}
[2016-04-13 09:59:38] Handling FETCH
[2016-04-13 09:59:38] FETCH response ignored for this message
[2016-04-13 09:59:38] imap_read_literal: reading 423 bytes
[2016-04-13 09:59:38] 6< )
[2016-04-13 09:59:38] parse_parameters: `boundary=--_com.android.email_1276555680235633_alt'
[2016-04-13 09:59:38] parse_parameter: `boundary' = `--_com.android.email_1276555680235633_alt'
[2016-04-13 09:59:38] 6< * 24 FETCH (FLAGS () UID 1276437 INTERNALDATE "13-Apr-2016 14:48:45 +0000" RFC822.SIZE 62388 BODY[HEADER.FIELDS (DATE FROM SUBJECT TO CC MESSAGE-ID REFERENCES CONTENT-TYPE CONTENT-DESCRIPTION IN-REPLY-TO REPLY-TO LINES LIST-POST X-LABEL)] {366}
[2016-04-13 09:59:38] Handling FETCH
[2016-04-13 09:59:38] FETCH response ignored for this message
[2016-04-13 09:59:38] imap_read_literal: reading 366 bytes
[2016-04-13 09:59:38] 6< )
[2016-04-13 09:59:38] parse_parameters: `boundary=--boundary_33303491_2c752144-859d-4029-b253-d14e3ef05210'
[2016-04-13 09:59:38] parse_parameter: `boundary' = `--boundary_33303491_2c752144-859d-4029-b253-d14e3ef05210'
[2016-04-13 09:59:38] 6< * 25 FETCH (FLAGS () UID 1276438 INTERNALDATE "13-Apr-2016 14:48:54 +0000" RFC822.SIZE 7983 BODY[HEADER.FIELDS (DATE FROM SUBJECT TO CC MESSAGE-ID REFERENCES CONTENT-TYPE CONTENT-DESCRIPTION IN-REPLY-TO REPLY-TO LINES LIST-POST X-LABEL)] {340}
[2016-04-13 09:59:38] Handling FETCH
[2016-04-13 09:59:38] FETCH response ignored for this message
[2016-04-13 09:59:38] imap_read_literal: reading 340 bytes
[2016-04-13 09:59:38] 6< )
[2016-04-13 09:59:38] parse_parameters: `charset=utf-8'
[2016-04-13 09:59:38] parse_parameter: `charset' = `utf-8'
[2016-04-13 09:59:38] 6< * 26 FETCH (FLAGS () UID 1276439 INTERNALDATE "13-Apr-2016 14:54:24 +0000" RFC822.SIZE 9078 BODY[HEADER.FIELDS (DATE FROM SUBJECT TO CC MESSAGE-ID REFERENCES CONTENT-TYPE CONTENT-DESCRIPTION IN-REPLY-TO REPLY-TO LINES LIST-POST X-LABEL)] {480}
[2016-04-13 09:59:38] Handling FETCH
[2016-04-13 09:59:38] FETCH response ignored for this message
[2016-04-13 09:59:38] imap_read_literal: reading 480 bytes
[2016-04-13 09:59:38] 6< )
[2016-04-13 09:59:38] parse_parameters: `boundary="----=_Part_1886620_1026286217.1460559261156"'
[2016-04-13 09:59:38] parse_parameter: `boundary' = `----=_Part_1886620_1026286217.1460559261156'
[2016-04-13 09:59:38] 6< * 27 FETCH (FLAGS () UID 1276440 INTERNALDATE "13-Apr-2016 14:55:15 +0000" RFC822.SIZE 7060 BODY[HEADER.FIELDS (DATE FROM SUBJECT TO CC MESSAGE-ID REFERENCES CONTENT-TYPE CONTENT-DESCRIPTION IN-REPLY-TO REPLY-TO LINES LIST-POST X-LABEL)] {667}
[2016-04-13 09:59:38] Handling FETCH
[2016-04-13 09:59:38] FETCH response ignored for this message
[2016-04-13 09:59:38] imap_read_literal: reading 667 bytes
[2016-04-13 09:59:38] 6< )
[2016-04-13 09:59:38] parse_parameters: `charset=us-ascii'
[2016-04-13 09:59:38] parse_parameter: `charset' = `us-ascii'
[2016-04-13 09:59:38] 6< * 28 FETCH (FLAGS () UID 1276441 INTERNALDATE "13-Apr-2016 14:59:12 +0000" RFC822.SIZE 7065 BODY[HEADER.FIELDS (DATE FROM SUBJECT TO CC MESSAGE-ID REFERENCES CONTENT-TYPE CONTENT-DESCRIPTION IN-REPLY-TO REPLY-TO LINES LIST-POST X-LABEL)] {675}
[2016-04-13 09:59:38] Handling FETCH
[2016-04-13 09:59:38] FETCH response ignored for this message
[2016-04-13 09:59:38] imap_read_literal: reading 675 bytes
[2016-04-13 09:59:38] 6< )
[2016-04-13 09:59:38] parse_parameters: `charset=us-ascii'
[2016-04-13 09:59:38] parse_parameter: `charset' = `us-ascii'
[2016-04-13 09:59:38] 6< a0006 OK Completed
[2016-04-13 09:59:38] IMAP queue drained
[2016-04-13 09:59:38] imap_open_mailbox: msgcount is 28
[2016-04-13 09:59:38] Sorting mailbox...
[2016-04-13 09:59:38] mutt_addr_is_user: no, all failed.
[2016-04-13 09:59:38] mutt_addr_is_user: no, all failed.
[2016-04-13 09:59:38] mutt_addr_is_user: no, all failed.
[2016-04-13 09:59:38] mutt_addr_is_user: no, all failed.
[2016-04-13 09:59:38] mutt_addr_is_user: no, all failed.
[2016-04-13 09:59:38] mutt_addr_is_user: no, all failed.
[2016-04-13 09:59:38] mutt_addr_is_user: no, all failed.
[2016-04-13 09:59:38] mutt_addr_is_user: no, all failed.
[2016-04-13 09:59:38] mutt_addr_is_user: no, all failed.
[2016-04-13 09:59:38] mutt_addr_is_user: no, all failed.
[2016-04-13 09:59:38] mutt_addr_is_user: no, all failed.
[2016-04-13 09:59:38] mutt_addr_is_user: no, all failed.
[2016-04-13 09:59:38] mutt_addr_is_user: no, all failed.
[2016-04-13 09:59:38] mutt_addr_is_user: no, all failed.
[2016-04-13 09:59:38] mutt_addr_is_user: no, all failed.
[2016-04-13 09:59:38] mutt_addr_is_user: no, all failed.
[2016-04-13 09:59:38] mutt_addr_is_user: no, all failed.
[2016-04-13 09:59:38] mutt_addr_is_user: no, all failed.
[2016-04-13 09:59:38] mutt_addr_is_user: no, all failed.
[2016-04-13 09:59:38] mutt_addr_is_user: no, all failed.
[2016-04-13 09:59:38] mutt_addr_is_user: no, all failed.
[2016-04-13 09:59:38] mutt_addr_is_user: no, all failed.
[2016-04-13 09:59:38] mutt_addr_is_user: no, all failed.
[2016-04-13 09:59:38] mutt_addr_is_user: no, all failed.
[2016-04-13 09:59:38] mutt_addr_is_user: no, all failed.
[2016-04-13 09:59:38] mutt_addr_is_user: no, all failed.
[2016-04-13 09:59:38] mutt_addr_is_user: no, all failed.
[2016-04-13 09:59:38] mutt_addr_is_user: no, all failed.
[2016-04-13 09:59:38] mutt_addr_is_user: no, all failed.
[2016-04-13 09:59:38] mutt_addr_is_user: no, all failed.
[2016-04-13 09:59:38] mutt_addr_is_user: no, all failed.
[2016-04-13 09:59:38] mutt_addr_is_user: no, all failed.
[2016-04-13 09:59:38] mutt_addr_is_user: no, all failed.
[2016-04-13 09:59:38] mutt_addr_is_user: no, all failed.
[2016-04-13 09:59:38] mutt_addr_is_user: no, all failed.
[2016-04-13 09:59:38] mutt_addr_is_user: no, all failed.
[2016-04-13 09:59:38] mutt_addr_is_user: no, all failed.
[2016-04-13 09:59:38] mutt_addr_is_user: no, all failed.
[2016-04-13 09:59:38] mutt_addr_is_user: no, all failed.
[2016-04-13 09:59:38] mutt_addr_is_user: no, all failed.
[2016-04-13 09:59:38] mutt_addr_is_user: no, all failed.
[2016-04-13 09:59:38] mutt_addr_is_user: no, all failed.
[2016-04-13 09:59:38] mutt_addr_is_user: no, all failed.
[2016-04-13 09:59:38] mutt_addr_is_user: no, all failed.
[2016-04-13 09:59:38] mutt_addr_is_user: no, all failed.
[2016-04-13 09:59:38] mutt_addr_is_user: no, all failed.
[2016-04-13 09:59:38] mutt_addr_is_user: no, all failed.
[2016-04-13 09:59:38] mutt_addr_is_user: no, all failed.
[2016-04-13 09:59:38] mutt_addr_is_user: no, all failed.
[2016-04-13 09:59:38] mutt_addr_is_user: no, all failed.
[2016-04-13 09:59:38] mutt_addr_is_user: no, all failed.
[2016-04-13 09:59:38] mutt_addr_is_user: no, all failed.
[2016-04-13 09:59:38] mutt_addr_is_user: no, all failed.
[2016-04-13 09:59:38] mutt_addr_is_user: no, all failed.
[2016-04-13 09:59:38] mutt_addr_is_user: no, all failed.
[2016-04-13 09:59:38] mutt_addr_is_user: no, all failed.
[2016-04-13 09:59:38] mutt_addr_is_user: no, all failed.
[2016-04-13 09:59:38] mutt_addr_is_user: no, all failed.
[2016-04-13 09:59:38] mutt_addr_is_user: no, all failed.
[2016-04-13 09:59:38] mutt_addr_is_user: no, all failed.
[2016-04-13 09:59:38] mutt_addr_is_user: no, all failed.
[2016-04-13 09:59:38] mutt_addr_is_user: no, all failed.
[2016-04-13 09:59:38] mutt_addr_is_user: no, all failed.
[2016-04-13 09:59:38] mutt_addr_is_user: no, all failed.
[2016-04-13 09:59:38] mutt_addr_is_user: no, all failed.
[2016-04-13 09:59:38] mutt_addr_is_user: no, all failed.
[2016-04-13 09:59:38] mutt_addr_is_user: no, all failed.
[2016-04-13 09:59:38] mutt_addr_is_user: no, all failed.
[2016-04-13 09:59:38] mutt_addr_is_user: no, all failed.
[2016-04-13 09:59:38] mutt_addr_is_user: no, all failed.
[2016-04-13 09:59:38] mutt_addr_is_user: no, all failed.
[2016-04-13 09:59:38] mutt_addr_is_user: no, all failed.
[2016-04-13 09:59:38] mutt_addr_is_user: no, all failed.
[2016-04-13 09:59:38] mutt_addr_is_user: no, all failed.
[2016-04-13 09:59:38] mutt_addr_is_user: no, all failed.
[2016-04-13 09:59:38] mutt_addr_is_user: no, all failed.
[2016-04-13 09:59:38] mutt_addr_is_user: no, all failed.
[2016-04-13 09:59:38] mutt_addr_is_user: no, all failed.
[2016-04-13 09:59:38] mutt_addr_is_user: no, all failed.
[2016-04-13 09:59:38] mutt_addr_is_user: no, all failed.
[2016-04-13 09:59:38] mutt_addr_is_user: no, all failed.
[2016-04-13 09:59:38] mutt_addr_is_user: no, all failed.
[2016-04-13 09:59:38] mutt_addr_is_user: no, all failed.
[2016-04-13 09:59:38] mutt_addr_is_user: no, all failed.
[2016-04-13 09:59:38] mutt_addr_is_user: no, all failed.
[2016-04-13 09:59:38] mutt_addr_is_user: no, all failed.
[2016-04-13 09:59:38] mutt_addr_is_user: no, all failed.
[2016-04-13 09:59:38] mutt_addr_is_user: no, all failed.
[2016-04-13 09:59:38] mutt_addr_is_user: no, all failed.
[2016-04-13 09:59:38] mutt_addr_is_user: no, all failed.
[2016-04-13 09:59:38] mutt_addr_is_user: no, all failed.
[2016-04-13 09:59:38] mutt_addr_is_user: no, all failed.
[2016-04-13 09:59:38] mutt_addr_is_user: no, all failed.
[2016-04-13 09:59:38] mutt_addr_is_user: no, all failed.
[2016-04-13 09:59:38] mutt_addr_is_user: no, all failed.
[2016-04-13 09:59:38] mutt_addr_is_user: no, all failed.
[2016-04-13 09:59:38] mutt_addr_is_user: no, all failed.
[2016-04-13 09:59:38] mutt_addr_is_user: no, all failed.
[2016-04-13 09:59:38] mutt_addr_is_user: no, all failed.
[2016-04-13 09:59:38] mutt_addr_is_user: no, all failed.
[2016-04-13 09:59:38] mutt_num_postponed: 0 postponed IMAP messages found.
[2016-04-13 09:59:40] mutt_index_menu[682]: Got op 127
[2016-04-13 09:59:40] Expunging messages from server...
[2016-04-13 09:59:40] 6> a0007 EXPUNGE
[2016-04-13 09:59:40] 6< * 4 EXPUNGE
[2016-04-13 09:59:40] Handling EXPUNGE
[2016-04-13 09:59:40] 6< * 8 EXPUNGE
[2016-04-13 09:59:40] Handling EXPUNGE
[2016-04-13 09:59:40] 6< * 8 EXPUNGE
[2016-04-13 09:59:40] Handling EXPUNGE
[2016-04-13 09:59:40] 6< * 8 EXPUNGE
[2016-04-13 09:59:40] Handling EXPUNGE
[2016-04-13 09:59:40] 6< * 8 EXPUNGE
[2016-04-13 09:59:40] Handling EXPUNGE
[2016-04-13 09:59:40] 6< * 9 EXPUNGE
[2016-04-13 09:59:40] Handling EXPUNGE
[2016-04-13 09:59:40] 6< * 10 EXPUNGE
[2016-04-13 09:59:40] Handling EXPUNGE
[2016-04-13 09:59:40] 6< * 10 EXPUNGE
[2016-04-13 09:59:40] Handling EXPUNGE
[2016-04-13 09:59:40] 6< * 10 EXPUNGE
[2016-04-13 09:59:40] Handling EXPUNGE
[2016-04-13 09:59:40] 6< * 10 EXPUNGE
[2016-04-13 09:59:40] Handling EXPUNGE
[2016-04-13 09:59:40] 6< * 10 EXPUNGE
[2016-04-13 09:59:40] Handling EXPUNGE
[2016-04-13 09:59:40] 6< * 17 EXISTS
[2016-04-13 09:59:40] Handling EXISTS
[2016-04-13 09:59:40] 6< * 0 RECENT
[2016-04-13 09:59:40] 6< a0007 OK Completed
[2016-04-13 09:59:40] IMAP queue drained
[2016-04-13 09:59:40] imap_cmd_finish: Expunging mailbox
[2016-04-13 09:59:40] Expunging message UID 1276387.
[2016-04-13 09:59:40] Expunging message UID 1276423.
[2016-04-13 09:59:40] Expunging message UID 1276422.
[2016-04-13 09:59:40] Expunging message UID 1276425.
[2016-04-13 09:59:40] Expunging message UID 1276424.
[2016-04-13 09:59:40] Expunging message UID 1276427.
[2016-04-13 09:59:40] Expunging message UID 1276429.
[2016-04-13 09:59:40] Expunging message UID 1276430.
[2016-04-13 09:59:40] Expunging message UID 1276431.
[2016-04-13 09:59:40] Expunging message UID 1276432.
[2016-04-13 09:59:40] Expunging message UID 1276433.
[2016-04-13 09:59:40] Sorting mailbox...
[2016-04-13 09:59:40] 17 kept, 11 deleted.
[2016-04-13 09:59:41] mutt_addr_is_user: no, all failed.
[2016-04-13 09:59:41] mutt_addr_is_user: no, all failed.
[2016-04-13 09:59:41] mutt_addr_is_user: no, all failed.
[2016-04-13 09:59:41] mutt_addr_is_user: no, all failed.
[2016-04-13 09:59:41] mutt_addr_is_user: no, all failed.
[2016-04-13 09:59:41] mutt_addr_is_user: no, all failed.
[2016-04-13 09:59:41] mutt_addr_is_user: no, all failed.
[2016-04-13 09:59:41] mutt_addr_is_user: no, all failed.
[2016-04-13 09:59:41] mutt_addr_is_user: no, all failed.
[2016-04-13 09:59:41] mutt_addr_is_user: no, all failed.
[2016-04-13 09:59:41] mutt_addr_is_user: no, all failed.
[2016-04-13 09:59:41] mutt_addr_is_user: no, all failed.
[2016-04-13 09:59:41] mutt_addr_is_user: no, all failed.
[2016-04-13 09:59:41] mutt_addr_is_user: no, all failed.
[2016-04-13 09:59:41] mutt_addr_is_user: no, all failed.
[2016-04-13 09:59:41] mutt_addr_is_user: no, all failed.
[2016-04-13 09:59:41] mutt_addr_is_user: no, all failed.
[2016-04-13 09:59:41] mutt_index_menu[682]: Got op 127
[2016-04-13 09:59:41] Mailbox is unchanged.
[2016-04-13 09:59:41] mutt_addr_is_user: no, all failed.
[2016-04-13 09:59:41] mutt_addr_is_user: no, all failed.
[2016-04-13 09:59:41] mutt_addr_is_user: no, all failed.
[2016-04-13 09:59:41] mutt_addr_is_user: no, all failed.
[2016-04-13 09:59:41] mutt_addr_is_user: no, all failed.
[2016-04-13 09:59:41] mutt_addr_is_user: no, all failed.
[2016-04-13 09:59:41] mutt_addr_is_user: no, all failed.
[2016-04-13 09:59:41] mutt_addr_is_user: no, all failed.
[2016-04-13 09:59:41] mutt_addr_is_user: no, all failed.
[2016-04-13 09:59:41] mutt_addr_is_user: no, all failed.
[2016-04-13 09:59:41] mutt_addr_is_user: no, all failed.
[2016-04-13 09:59:41] mutt_addr_is_user: no, all failed.
[2016-04-13 09:59:41] mutt_addr_is_user: no, all failed.
[2016-04-13 09:59:41] mutt_addr_is_user: no, all failed.
[2016-04-13 09:59:41] mutt_addr_is_user: no, all failed.
[2016-04-13 09:59:41] mutt_addr_is_user: no, all failed.
[2016-04-13 09:59:41] mutt_addr_is_user: no, all failed.
[2016-04-13 09:59:41] mutt_index_menu[682]: Got op 127
[2016-04-13 09:59:41] Mailbox is unchanged.
[2016-04-13 09:59:41] mutt_addr_is_user: no, all failed.
[2016-04-13 09:59:41] mutt_addr_is_user: no, all failed.
[2016-04-13 09:59:41] mutt_addr_is_user: no, all failed.
[2016-04-13 09:59:41] mutt_addr_is_user: no, all failed.
[2016-04-13 09:59:41] mutt_addr_is_user: no, all failed.
[2016-04-13 09:59:41] mutt_addr_is_user: no, all failed.
[2016-04-13 09:59:41] mutt_addr_is_user: no, all failed.
[2016-04-13 09:59:41] mutt_addr_is_user: no, all failed.
[2016-04-13 09:59:41] mutt_addr_is_user: no, all failed.
[2016-04-13 09:59:41] mutt_addr_is_user: no, all failed.
[2016-04-13 09:59:41] mutt_addr_is_user: no, all failed.
[2016-04-13 09:59:41] mutt_addr_is_user: no, all failed.
[2016-04-13 09:59:41] mutt_addr_is_user: no, all failed.
[2016-04-13 09:59:41] mutt_addr_is_user: no, all failed.
[2016-04-13 09:59:41] mutt_addr_is_user: no, all failed.
[2016-04-13 09:59:41] mutt_addr_is_user: no, all failed.
[2016-04-13 09:59:41] mutt_addr_is_user: no, all failed.
[2016-04-13 10:00:41] mutt_index_menu[682]: Got op -1
[2016-04-13 10:00:41] 6> a0008 NOOP
[2016-04-13 10:00:42] 6< a0008 OK Completed
[2016-04-13 10:00:42] IMAP queue drained
[2016-04-13 10:01:07] mutt_index_menu[682]: Got op 146
[2016-04-13 10:01:07] Mailbox is unchanged.
[2016-04-13 10:01:07] Closing connection to someplace.com...
[2016-04-13 10:01:07] Draining IMAP command pipeline
[2016-04-13 10:01:07] 6> a0009 CLOSE
[2016-04-13 10:01:07] 6< a0009 OK Completed
[2016-04-13 10:01:07] IMAP queue drained
[2016-04-13 10:01:07] 6> a0010 LOGOUT
[2016-04-13 10:01:08] 6< * BYE LOGOUT received
[2016-04-13 10:01:08] Handling BYE
[2016-04-13 10:01:08] 6< a0010 OK Completed
[2016-04-13 10:01:08] IMAP queue drained

---------------------------------------------------

Mutt hung without the pipeline set to 1:
---------------------------------------------------
[2016-04-13 10:01:42] Mutt/1.6.0 (2016-04-01) debugging at level 5
[2016-04-13 10:01:42] getdnsdomainname(): local
[2016-04-13 10:01:42] Reading configuration file '/Users/someone/tmp/mutt/inst/etc/Muttrc'.
[2016-04-13 10:01:42] parse_attach_list: ldata = 0x104e5c6d0, *ldata = 0x0
[2016-04-13 10:01:42] parse_attach_list: added */.* [9]
[2016-04-13 10:01:42] parse_attach_list: ldata = 0x104e5c6d8, *ldata = 0x0
[2016-04-13 10:01:42] parse_attach_list: added text/x-vcard [7]
[2016-04-13 10:01:42] parse_attach_list: added application/pgp.* [2]
[2016-04-13 10:01:42] parse_attach_list: ldata = 0x104e5c6d8, *ldata = 0x7fa153405bc0
[2016-04-13 10:01:42] parse_attach_list: skipping text/x-vcard
[2016-04-13 10:01:42] parse_attach_list: skipping application/pgp.*
[2016-04-13 10:01:42] parse_attach_list: added application/x-pkcs7-.* [2]
[2016-04-13 10:01:42] parse_attach_list: ldata = 0x104e5c6e0, *ldata = 0x0
[2016-04-13 10:01:42] parse_attach_list: added text/plain [7]
[2016-04-13 10:01:42] parse_attach_list: ldata = 0x104e5c6d8, *ldata = 0x7fa153405bc0
[2016-04-13 10:01:42] parse_attach_list: skipping text/x-vcard
[2016-04-13 10:01:42] parse_attach_list: skipping application/pgp.*
[2016-04-13 10:01:42] parse_attach_list: skipping application/x-pkcs7-.*
[2016-04-13 10:01:42] parse_attach_list: added message/external-body [4]
[2016-04-13 10:01:42] parse_attach_list: ldata = 0x104e5c6e8, *ldata = 0x0
[2016-04-13 10:01:42] parse_attach_list: added message/external-body [4]
[2016-04-13 10:01:42] Reading configuration file '/Users/someone/.muttrc.mac'.
[2016-04-13 10:01:42] Using default IMAP port 143
[2016-04-13 10:01:42] Using default IMAPS port 993
[2016-04-13 10:01:42] Reading configuration file '/Users/someone/.mutt/aliases'.
[2016-04-13 10:01:42] Reading imaps://someplace.com/INBOX...
[2016-04-13 10:01:42] Looking up someplace.com...
[2016-04-13 10:01:43] Connecting to someplace.com...
[2016-04-13 10:01:44] ssl_check_preauth: hostname check passed
[2016-04-13 10:01:44] X509_STORE_load_locations failed
[2016-04-13 10:01:44] X509_verify_cert: unable to get local issuer certificate (20)
[2016-04-13 10:01:44]  [/C=US/ST=someplace]
[2016-04-13 10:01:44] X509_STORE_load_locations failed
[2016-04-13 10:01:44] ssl_check_preauth: signer check passed
[2016-04-13 10:01:44] trusted: /C=US/O=Symantec Corporation/OU=Symantec Trust Network/CN=Symantec Class 3 Secure Server CA - G4
[2016-04-13 10:01:44] ssl_check_preauth: hostname check passed
[2016-04-13 10:01:44] X509_STORE_load_locations failed
[2016-04-13 10:01:44] ssl_check_preauth: signer check passed
[2016-04-13 10:01:44] TLSv1.2 connection using TLSv1/SSLv3 (ECDHE-RSA-AES128-GCM-SHA256)
[2016-04-13 10:01:45] Connected to someplace.com:993 on fd=6
[2016-04-13 10:01:45] imap_cmd_step: grew buffer to 512 bytes
[2016-04-13 10:01:45] 6< * OK [CAPABILITY mr11p00im-iscream016 15E205 XAPPLEPUSHSERVICE IMAP4 IMAP4rev1 SASL-IR AUTH=ATOKEN AUTH=PLAIN] iSCREAM ready to rumble (15E205-0982aaf890fd:14504) mr11p00im-iscream016 [37:674:15:01:43:20]
[2016-04-13 10:01:45] Handling CAPABILITY
[2016-04-13 10:01:45] IMAP queue drained
[2016-04-13 10:01:45] imap_authenticate: Using any available method.
[2016-04-13 10:01:50] Logging in...
[2016-04-13 10:01:50] 6> a0000 LOGIN "someone@someplace.com" "password"
[2016-04-13 10:01:51] 6< a0000 OK [CAPABILITY XAPPLEPUSHSERVICE IMAP4 IMAP4rev1 ACL RIGHTS=tekx QUOTA LITERAL+ NAMESPACE UIDPLUS CHILDREN BINARY UNSELECT SORT CATENATE URLAUTH LANGUAGE ESEARCH ESORT THREAD=ORDEREDSUBJECT THREAD=REFERENCES CONDSTORE ENABLE QRESYNC CONTEXT=SEARCH CONTEXT=SORT WITHIN SASL-IR SEARCHRES METADATA ID XSENDER X-SUN-SORT ANNOTATE-EXPERIMENT-1 X-UNAUTHENTICATE X-SUN-IMAP XUM1 IDLE] User someone logged in
[2016-04-13 10:01:51] Handling CAPABILITY
[2016-04-13 10:01:51] IMAP queue drained
[2016-04-13 10:01:51] Communication encrypted at 128 bits
[2016-04-13 10:01:51] 6> a0001 CAPABILITY
a0002 LIST "" ""
[2016-04-13 10:01:51] 6< * CAPABILITY XAPPLEPUSHSERVICE IMAP4 IMAP4rev1 ACL RIGHTS=tekx QUOTA LITERAL+ NAMESPACE UIDPLUS CHILDREN BINARY UNSELECT SORT CATENATE URLAUTH LANGUAGE ESEARCH ESORT THREAD=ORDEREDSUBJECT THREAD=REFERENCES CONDSTORE ENABLE QRESYNC CONTEXT=SEARCH CONTEXT=SORT WITHIN SASL-IR SEARCHRES METADATA ID XSENDER X-SUN-SORT ANNOTATE-EXPERIMENT-1 X-UNAUTHENTICATE X-SUN-IMAP XUM1 IDLE
[2016-04-13 10:01:51] Handling CAPABILITY
[2016-04-13 10:01:51] 6< a0001 OK Completed

---------------------------------------------------

--------------------------------------------------------------------------------
2016-04-21 19:54:16 UTC kevin8t8
* Added comment:
Sorry for the delay.  I took a closer look at IMAP changes between 1.5.24 and 1.6.0, and aside from the UTF8 changes, nothing else significant was done.  Given that the patch didn't make a difference that ruled out those changes.

One of our contributors poked a maintainer for the IMAP server to see if he could get any feedback about this, but didn't really get helpful response.

Brendan took another look and confirmed that Mutt is following the RFC, and given that setting $imap_pipeline_depth to 0 or 1 fixed the problem, it seems the problem is on the server side: they seem unable to deal with pipelining.  Perhaps they'll fix it soon, perhaps not.  :-/

I don't really have any other workaround except to keep that setting for now.  You may want to try periodically turning it off to see if they have fixed it on their side.  For now, I'm marking this wontfix, but feel free to post back if you have updates or find out new information.


* resolution changed to wontfix
* status changed to closed
